%YAML 1.1
%TAG !u! tag:unity3d.com,2011:
--- !u!1045 &1
EditorBuildSettings:
  m_ObjectHideFlags: 0
  serializedVersion: 2
  m_Scenes:
  - enabled: 1
    path: Assets/Game/Scenes/RootScene.unity
  - enabled: 1
    path: Assets/Game/Scenes/MainMenuScene.unity
  - enabled: 1
    path: Assets/Game/Scenes/GameScene.unity
  - enabled: 1
    path: Assets/Game/Scenes/HowToPlayScene.unity
  - enabled: 1
    path: Assets/Game/Scenes/CreditsScene.unity
  - enabled: 1
    path: Assets/Game/Scenes/GameUIScene.unity
